…
    ## Reading layer `NLDAS_Grid_Reference' from data source `C:\Users\slewa\OneDrive - cumc.columbia.edu\Documents\heat\nldas_grids\NLDAS_Grid_Reference.shp' using driver `ESRI Shapefile'
    ## Simple feature collection with 103936 features and 5 fields
    ## geometry type:  POLYGON
    ## dimension:      XY
    ## bbox:           xmin: -125 ymin: 25 xmax: -67 ymax: 53
    ## epsg (SRID):    4326
    ## proj4string:    +proj=longlat +datum=WGS84 +no_defs

``` r
as_tibble(nldas_grid)
```

    ## # A tibble: 103,936 x 6
    ##    centerx centery nldas_x nldas_y nldas_id                        geometry
    ##      <dbl>   <dbl>   <int>   <int> <fct>                      <POLYGON [°]>
    ##  1   -125.    25.1       1       1 x1y1     ((-124.875 25, -125 25, -125 2~
    ##  2   -125.    25.1       2       1 x2y1     ((-124.75 25, -124.875 25, -12~
    ##  3   -125.    25.1       3       1 x3y1     ((-124.625 25, -124.75 25, -12~
    ##  4   -125.    25.1       4       1 x4y1     ((-124.5 25, -124.625 25, -124~
    ##  5   -124.    25.1       5       1 x5y1     ((-124.375 25, -124.5 25, -124~
    ##  6   -124.    25.1       6       1 x6y1     ((-124.25 25, -124.375 25, -12~
    ##  7   -124.    25.1       7       1 x7y1     ((-124.125 25, -124.25 25, -12~
    ##  8   -124.    25.1       8       1 x8y1     ((-124 25, -124.125 25, -124.1~
    ##  9   -124.    25.1       9       1 x9y1     ((-123.875 25, -124 25, -124 2~
    ## 10   -124.    25.1      10       1 x10y1    ((-123.75 25, -123.875 25, -12~
    ## # ... with 103,926 more rows
…
