…
    ##  3 DSWR~     2    13 float W/m^2 SW radi~           1       1 FALSE  
    ##  4 CAPE~     2    14 float J/kg  180-0 m~           1       1 FALSE  
    ##  5 CONV~     2    13 float unit~ Fractio~           1       1 FALSE  
    ##  6 APCP~     2    13 float kg/m~ Precipi~           1       1 FALSE  
    ##  7 SPFH~     2    14 float kg/kg 2-m abo~           1       1 FALSE  
    ##  8 VGRD~     2    14 float m/s   10-m ab~           1       1 FALSE  
    ##  9 UGRD~     2    14 float m/s   10-m ab~           1       1 FALSE  
    ## 10 TMP2~     2    14 float K     2-m abo~           1       1 FALSE  
    ## 11 PRES~     2    13 float Pa    Surface~           1       1 FALSE  
    ## # ... with 7 more variables: compression <lgl>, unlim <lgl>,
    ## #   make_missing_value <lgl>, missval <dbl>, hasAddOffset <lgl>,
    ## #   hasScaleFact <lgl>, id <dbl>
    ## 
    ## $vardim
    ## # A tibble: 22 x 2
    ##       id dimids
    ##    <dbl>  <int>
    ##  1     2      1
    ##  2     2      0
    ##  3     3      1
    ##  4     3      0
    ##  5     4      1
    ##  6     4      0
    ##  7     5      1
    ##  8     5      0
    ##  9     6      1
    ## 10     6      0
    ## # ... with 12 more rows
    ## 
    ## $attribute
    ## [1] "NetCDF attributes:"
    ## [1] "Global"
    ## [1] "\n"
…
