…
    ## 
     Progress: ----------------------------------------------------------------------------------------------- 100%

``` r
proc.time() - ptm
```

    ##    user  system elapsed 
    ##    0.10    0.00    1.84

``` r
df_out
```

    ## # A tibble: 24 x 9
    ##      lon   lat   tmp    spfh  ugrd   vgrd    pres dswrf date_time          
    ##    <dbl> <dbl> <dbl>   <dbl> <dbl>  <dbl>   <dbl> <dbl> <dttm>             
    ##  1 -79.3  35.1  286. 0.00545 0.950 -0.800 100663.     0 2000-01-01 00:00:00
    ##  2 -79.2  35.1  286. 0.00553 0.910 -0.860 100789.     0 2000-01-01 00:00:00
    ##  3 -79.1  35.1  286. 0.00563 0.870 -0.800 101011.     0 2000-01-01 00:00:00
    ##  4 -78.9  35.1  285. 0.00573 0.830 -0.75  101242.     0 2000-01-01 00:00:00
    ##  5 -79.3  35.2  286. 0.00525 0.890 -0.810 100624.     0 2000-01-01 00:00:00
    ##  6 -79.2  35.2  286. 0.00528 0.920 -0.890 100816.     0 2000-01-01 00:00:00
    ##  7 -79.1  35.2  286. 0.00535 0.890 -0.850 100905.     0 2000-01-01 00:00:00
    ##  8 -78.9  35.2  285. 0.00545 0.860 -0.820 101146.     0 2000-01-01 00:00:00
    ##  9 -79.3  35.1  286. 0.00541 0.300 -0.540 100754.     0 2000-01-01 00:00:00
    ## 10 -79.2  35.1  285. 0.00547 0.280 -0.600 100881.     0 2000-01-01 00:00:00
    ## # ... with 14 more rows
…
